…
``` r
data <- md_read_csv_with_meta("./data-raw/exp_series_md_1.csv")
#> Rows: 1000 Columns: 8
#> ── Column specification ────────────────────────────────────────────────────────
#> Delimiter: ","
#> dbl (5): t, k, t1, t2, t3
#> lgl (3): x1, x2, x3
#> 
#> ℹ Use `spec()` to retrieve the full column specification for this data.
#> ℹ Specify the column types or set `show_col_types = FALSE` to quiet this message.
print(data)
#> Latent variables:  k t1 t2 t3 
#> # A tibble: 1,000 × 8
#>          t     k      t1      t2     t3 x1    x2    x3   
#>      <dbl> <dbl>   <dbl>   <dbl>  <dbl> <lgl> <lgl> <lgl>
#>  1 0.144       2 0.281   0.144   0.266  TRUE  TRUE  FALSE
#>  2 0.0105      1 0.0105  0.0141  0.0633 TRUE  FALSE TRUE 
#>  3 0.0363      2 0.105   0.0363  0.545  TRUE  TRUE  FALSE
#>  4 0.00972     1 0.00972 0.251   0.0960 TRUE  FALSE TRUE 
#>  5 0.0377      3 0.0937  0.0943  0.0377 TRUE  FALSE TRUE 
#>  6 0.0958      3 0.283   0.391   0.0958 FALSE TRUE  TRUE 
#>  7 0.169       3 0.197   1.01    0.169  FALSE TRUE  TRUE 
#>  8 0.270       3 0.322   0.371   0.270  FALSE TRUE  TRUE 
#>  9 0.299       3 0.390   0.401   0.299  TRUE  FALSE TRUE 
#> 10 0.00794     2 0.524   0.00794 0.120  FALSE TRUE  TRUE 
#> # ℹ 990 more rows
```
…
